{
    "definitions": {
        "package": {
            "type": "string",
            "enum": [
                "SMD",
                "DIP",
                "TQFP",
                "SOT23"
            ]
        },
        "package_array": {
            "type": "array",
            "items": {
                "oneOf": [
                    {
                        "$ref": "#definitions/brands"
                    }
                ]
            }
        }
    }
}