{
    "definitions": {
        "pin": {
            "type": "string",
            "enum": [
                "VIN",
                "VOUT",
                "VSS",
                "VCC",
                "GND",
                "SCL",
                "SDA",
                "SDO",
                "CS"
            ]
        },
        "pin_array": {
            "type": "array",
            "items": {
                "oneOf": [
                    {
                        "$ref": "#definitions/pin"
                    }
                ]
            }
        },
        "item": {
            "type": "array",
            "oneOf": [
                {
                    "$ref": "#definitions/pin"
                },
                {
                    "$ref": "#definitions/pin_array"
                }
            ]
        }
    }
}