{
    "definitions": {
        "item": {
            "type": "object",
            "additionalProperties": false,
            "properties": {
                "input_voltage_min": {
                    "type": "string"
                },
                "input_voltage_max": {
                    "type": "string"
                },
                "output_voltage_nominal": {
                    "type": "string"
                },
                "output_current": {
                    "type": "string"
                },
                "dropout_voltage": {
                    "type": "string"
                }
            }
        }
    }
}